{
  "project_info": {
    "project_number": "880521508185",
    "firebase_url": "https://hotel-booking-ios-dd983.firebaseio.com",
    "project_id": "hotel-booking-ios-dd983",
    "storage_bucket": "hotel-booking-ios-dd983.appspot.com"
  },
  "client": [
    {
      "client_info": {
        "mobilesdk_app_id": "1:880521508185:android:f77118f6c0a043804f4848",
        "android_client_info": {
          "package_name": "com.example.hotelbookingios"
        }
      },
      "oauth_client": [
        {
          "client_id": "880521508185-m1hc5o01ld6b4pog1t5kr957604l4mds.apps.googleusercontent.com",
          "client_type": 1,
          "android_info": {
            "package_name": "com.example.hotelbookingios",
            "certificate_hash": "1167a31363783d84c69cc703c32f71f166ca6267"
          }
        },
        {
          "client_id": "880521508185-s9n9jhus3tqqpdsnl8tmfk0o4p8emdkg.apps.googleusercontent.com",
          "client_type": 3
        }
      ],
      "api_key": [
        {
          "current_key": "AIzaSyCdeAIJ_UJ6xcnyh16k39ZfTlhno_HgXZ4"
        }
      ],
      "services": {
        "appinvite_service": {
          "other_platform_oauth_client": [
            {
              "client_id": "880521508185-s9n9jhus3tqqpdsnl8tmfk0o4p8emdkg.apps.googleusercontent.com",
              "client_type": 3
            }
          ]
        }
      }
    }
  ],
  "configuration_version": "1"
}